{
  "parkerData": [
    {"name": "Jonh", "workingAt": "Parking Lord 1", "workingTime":"5:00-13:00", "imgProfile": "google.com"},
    {"name": "K01", "workingAt": "Khmer-Russian Hospital", "workingTime":"10:00-18:00", "imgProfile": "google.com"},
    {"name": "SOk", "workingAt": "Sokha Hotel", "workingTime":"18:00-5:00", "imgProfile": "google.com"},
    {"name": "Som", "workingAt": "Reaksmey 100 knong", "workingTime":"6:00-18:00", "imgProfile": "google.com"},
    {"name": "Sao", "workingAt": "Parking Lord 10", "workingTime":"5:00-13:00", "imgProfile": "google.com"}
  ]
}